appraiseR • appraiseR
…
appraiseR é um pacote R para facilitar a prática da Engenharia de Avaliações segundo a NBR 14.653-02 (NBR 14653-2: Avaliação de Bens Parte 2: Imóveis Urbanos 2011).

Conjuntos de dados disponíveis

Foram disponibilizados alguns conjuntos de dados visando possibilitar a confecção de testes dos algoritmos.

Uns destes conjuntos é um conjunto de 50 dados de apartamentos em Florianópolis (Hochheim 2015), que será utilizado neste texto:

data("centro_2015")
dados <- centro_2015@data

dados

## # A tibble: 53 x 7
##      valor area_total quartos suites garagens dist_b_mar padrao
##      <dbl>      <dbl>   <dbl>  <dbl>    <dbl>      <dbl> <fct> 
##  1 1060000      350         3      1        2        720 medio 
##  2  510000      137.        3      1        1        665 medio 
##  3  780000      165.        3      1        2        415 medio 
##  4  550000      175.        3      1        1        320 medio 
##  5  850000      123.        3      1        3        895 alto  
##  6  300000       89.8       2      0        1        645 baixo 
##  7  750000      174         2      1        2        860 alto  
##  8  650000      123         3      1        1        745 alto  
##  9  620000      121         3      1        1        745 alto  
## 10  740000      109         3      1        1        300 medio 
## # ... with 43 more rows
…
